{
    "boot_primary": "system.0",
    "booted": "A",
    "compatible": "SystemOTA Test Environment",
    "slots": [
        {
            "system.1": {
                "boot_status": "bad",
                "bootname": "B",
                "class": "system",
                "device": "/var/tmp/rauc-fake-system/slot-b",
                "mountpoint": null,
                "parent": null,
                "state": "inactive",
                "type": "raw"
            }
        },
        {
            "system.0": {
                "boot_status": "good",
                "bootname": "A",
                "class": "system",
                "device": "/var/tmp/rauc-fake-system/slot-a",
                "mountpoint": null,
                "parent": null,
                "state": "booted",
                "type": "raw"
            }
        }
    ],
    "variant": ""
}
